version="0.1.1"
tags={
	"Alternative History"
	"Events"
	"Map"
	"National Focuses"
}
replace_path="common/ai_focuses"
replace_path="common/ai_peace"
replace_path="common/ai_strategy"
replace_path="common/ai_strategy_plans"
replace_path="common/ai_templates"
replace_path="common/national_focus"
replace_path="common/ideas"
replace_path="common/decisions"
replace_path="common/operations"
replace_path="common/on_actions"
replace_path="events"
replace_path="common/scripted_localisation"
replace_path="common/scripted_effects"
replace_path="common/scripted_triggers"
name=" Das Vaterland - Dev Build"
supported_version="1.9.*"