
state={
	id=36
	name="STATE_36"

	history={
		owner = HOL
		add_core_of = HOL
		victory_points = {
			6241 5 
		}
		victory_points = {
			6336 1 
		}
		buildings = {
			infrastructure = 6
			industrial_complex = 2
			6336 = {
				naval_base = 3

			}

		}

	}

	provinces={
		6241 6286 6336 8622 
	}
	manpower=2364000
	buildings_max_level_factor=1.000
	state_category=city
}
