state={
	id=622
	name="STATE_622" #Shaanxi
	resources={
		steel=3.000
		tungsten=3.000
	}

	history={
		owner = SHX
		add_core_of = PRC
		add_core_of = CHI
		add_core_of = SHX
		victory_points = {
			8049 3 
		}
		buildings = {
			infrastructure = 2
			arms_factory = 3
			industrial_complex = 3
			10733 = {
				bunker = 2

			}
			12156 = {
				bunker = 2

			}
			5007 = {
				bunker = 2

			}

		}

	}

	provinces={
		517 1458 4939 5007 7208 7314 7659 8049 10733 10880 12156 12356 
	}
	manpower=7006200
	buildings_max_level_factor=1.000
	state_category=city
}
