state={
	id=718
	name="STATE_718"
	
	state_category = pastoral

	resources={
		rubber=5 # was: 6.000
	}

	history={
		owner = MIT
		buildings = {
			infrastructure = 2

		}
		add_core_of = COG
	}

	provinces={
		1181 1950 2034 2073 2154 4201 4941 6027 7161 10766 11934 12783 12808 12847 13176 
	}
	manpower=2366783
	buildings_max_level_factor=1.000
}
