state={
	id=770
	name="STATE_770"

	history={
		owner = MIT
		add_core_of = MLW
		victory_points = {
			12986 1 
		}
		buildings = {
			infrastructure = 3

		}

	}

	provinces={
		2255 12908 12986 13209 
	}
	manpower=1603975
	buildings_max_level_factor=1.000
	state_category=pastoral
}
