
state={
	id=812
	name="STATE_812"

	history={
		owner = HOL
		add_core_of = HOL

	}
	victory_points = {
		9335 3 
	}

	provinces={
		9309 9335 11318 
	}
	manpower=0
	state_category=city
	buildings_max_level_factor=1.000
}
